00000000 .text
00000830 .rodata
00000884 .eh_frame
00000b60 .bss
00000000 .comment
00000000 .debug_aranges
00000000 .debug_info
00000000 .debug_abbrev
00000000 .debug_line
00000000 .debug_str
00000000 .debug_loc
00000000 .debug_ranges
00000000 ulib.c
00000000 printf.c
00000470 printint
00000870 digits.1109
00000000 umalloc.c
00000b60 freep
00000b64 base
00000000 wc.c
00000180 strcpy
00000510 printf
00000390 memmove
0000040a mknod
00000290 gets
00000442 getpid
00000740 malloc
00000452 sleep
000003d2 pipe
000003e2 write
0000041a fstat
000003f2 kill
00000432 chdir
000003fa exec
000003ca wait
000003da read
00000412 unlink
000000a0 wc
000003ba fork
0000044a sbrk
0000045a uptime
00000b44 __bss_start
00000230 memset
00000000 main
000001b0 strcmp
0000043a dup
00000b80 buf
00000462 getreadcount
00000300 stat
00000b44 _edata
00000d80 _end
00000422 link
000003c2 exit
00000350 atoi
00000200 strlen
00000402 open
00000250 strchr
0000042a mkdir
000003ea close
000006b0 free
